[
  {
    "version": "1.0.0",
    "changes": [
      "Erste Version"
    ]
  },
  {
    "version": "1.1.0",
    "changes": [
      "Füge Preisalarme hinzu",
      "Füge Nachricht bei großen Preisbewegungen hinzu",
      "Füge Thumbnails für Coins hinzu",
      "Füge Icons für Währungen hinzu",
      "Aktualisiere Suchliste jeden Tag",
      "Stelle kleine Preise korrekt dar"
    ]
  },
  {
    "version": "1.2.1",
    "changes": [
      "Füge Option zum Ändern der App-Farbe hinzu",
      "Füge Unterstützung für geräteweiten Dark Mode hinzu",
      "Füge Option zum Im- und Exportieren von Favoriten und Alarmen hinzu",
      "Füge \"Alles ein- / ausklappen\" Knopf zur Alarmliste hinzu",
      "Füge Suchverlauf hinzu",
      "Behebe Fehler, dass Preisalarmeinträge nach dem Löschen noch angezeigt wurden",
      "Behebe mehrere UI-Fehler"
    ]
  },
  {
    "version": "1.2.2",
    "changes": [
      "Erstelle keinen neuen Preisbewegungsalarm wenn schon einer existiert (z.B. beim Import)",
      "Aktualisiere Favoritenliste sofort",
      "Zeige Snackbar nach dem Entfernen von Favoriten zum Rückgängig machen",
      "Zeige Preis, Preisveränderung und Zeitstempel bei Graph Berührung",
      "Zeige den min. und max. Preis für ausgewählten Zeitraum"
    ]
  },
  {
    "version": "1.3.0",
    "changes": [
      "Füge Portfolios hinzu",
      "Starte Alarme nach Aktualisieren der App neu"
    ]
  },
  {
    "version": "1.3.1",
    "changes": [
      "Füge Fehlernachricht und Erklärung für Ratenbeschränkung hinzu",
      "Füge Spendenseite hinzu",
      "Ermögliche Aktualisierung der Seite nach Fehlermeldung",
      "Zeige globale Marktkap. und Volumen",
      "Füge globale Marktinfo Seite hinzu",
      "Ermögliche Wahl zwischen eigenen und echten Coinpreisen für die Währungswerte in der Transaktionsliste",
      "Füge Transaktionskostenfeld hinzu",
      "Behebe einfrieren der App bei negativen Portfolios",
      "Ermögliche 0 als validen Coinpreis in Transaktionen",
      "Behebe Fehler beim Eingeben eines Kommas im Coinpreis",
      "Korrektes Zurücksetzen von Werten in nicht gespeicherten Transaktionen"
    ]
  },
  {
    "version": "1.3.2",
    "changes": [
      "Unterstützung für mehrere Portfolios",
      "Füge Überschreibungswarnung zum Import hinzu",
      "Behebe mehrere Darstellungsfehler",
      "Behebe Probleme mit der Coinliste",
      "Behebe globales Marktinfo Diagramm",
      "Behebe Fehler mit nicht genug Marktdaten"
    ]
  },
  {
    "version": "1.3.3",
    "changes": [
      "Startbildschirm wählen",
      "Mehr Währungen",
      "Behebe Öffnen von Detailbildschirm mit falschem Portfolio",
      "Behebe Importfehler",
      "Behebe Darstellungsfehler"
    ]
  },
  {
    "version": "1.4.0",
    "changes": [
      "Kopiere Portfolio- und Transaktionsmengen durch langes Drücken",
      "Zeige Marktkap. Rang auf Detailbildschirm",
      "Füge Option zum Ändern des Nummern- und Datumsformats hinzu",
      "Füge Passwortsperre und Privatmodus hinzu",
      "Füge automatisches Backup hinzu",
      "Füge eigenen Preisbewegungs Schwellwert hinzu"
    ]
  },
  {
    "version": "1.4.1",
    "changes": [
      "Füge OLED-Design hinzu",
      "Füge Option zum Anzeigen des Preises in Prozent-Alarmen hinzu",
      "Behebe Darstellungsfehler in Graphen"
    ]
  }
]